{
	"partitions" : [
		{
			"name" : "Top",
			"pins" : [
				{
					"name" : "pulslength[0]",
					"strict" : false
				},
				{
					"name" : "pulslength[1]",
					"strict" : false
				},
				{
					"name" : "pulslength[2]",
					"strict" : false
				},
				{
					"name" : "pulslength[3]",
					"strict" : false
				},
				{
					"name" : "pulslength[4]",
					"strict" : false
				},
				{
					"name" : "pulslength[5]",
					"strict" : false
				},
				{
					"name" : "pulslength[6]",
					"strict" : false
				},
				{
					"name" : "pulslength[7]",
					"strict" : false
				},
				{
					"name" : "pulslength[8]",
					"strict" : false
				},
				{
					"name" : "pulslength[9]",
					"strict" : false
				},
				{
					"name" : "pulslength[10]",
					"strict" : false
				},
				{
					"name" : "pulslength[11]",
					"strict" : false
				},
				{
					"name" : "pulslength[12]",
					"strict" : false
				},
				{
					"name" : "key[1]",
					"strict" : false
				},
				{
					"name" : "key[6]",
					"strict" : false
				},
				{
					"name" : "key[5]",
					"strict" : false
				},
				{
					"name" : "key[2]",
					"strict" : false
				},
				{
					"name" : "key[7]",
					"strict" : false
				},
				{
					"name" : "key[4]",
					"strict" : false
				},
				{
					"name" : "key[0]",
					"strict" : false
				},
				{
					"name" : "key[3]",
					"strict" : false
				}
			]
		}
	]
}