
State Machine - |clock_generator|tone_state
Name tone_state.state_7 tone_state.state_6 tone_state.state_5 tone_state.state_4 tone_state.state_0 tone_state.state_2 tone_state.state_1 tone_state.state_3 
tone_state.state_3 0 0 0 0 0 0 0 0 
tone_state.state_1 0 0 0 0 0 0 1 1 
tone_state.state_2 0 0 0 0 0 1 0 1 
tone_state.state_0 0 0 0 0 1 0 0 1 
tone_state.state_4 0 0 0 1 0 0 0 1 
tone_state.state_5 0 0 1 0 0 0 0 1 
tone_state.state_6 0 1 0 0 0 0 0 1 
tone_state.state_7 1 0 0 0 0 0 0 1 
