{
	"partitions" : [
		{
			"name" : "Top",
			"pins" : [
				{
					"name" : "audiol",
					"strict" : false
				},
				{
					"name" : "audior",
					"strict" : false
				},
				{
					"name" : "reset",
					"strict" : false
				},
				{
					"name" : "key[2]",
					"strict" : false
				},
				{
					"name" : "key[6]",
					"strict" : false
				},
				{
					"name" : "key[7]",
					"strict" : false
				},
				{
					"name" : "key[0]",
					"strict" : false
				},
				{
					"name" : "key[4]",
					"strict" : false
				},
				{
					"name" : "key[5]",
					"strict" : false
				},
				{
					"name" : "key[3]",
					"strict" : false
				},
				{
					"name" : "key[1]",
					"strict" : false
				},
				{
					"name" : "clk",
					"strict" : false
				}
			]
		}
	]
}