Analysis & Synthesis report for readkey
Tue May 19 21:52:15 2020
Quartus Prime Version 17.1.0 Build 590 10/25/2017 SJ Lite Edition


---------------------
; Table of Contents ;
---------------------
  1. Legal Notice
  2. Analysis & Synthesis Summary
  3. Analysis & Synthesis Settings
  4. Parallel Compilation
  5. Analysis & Synthesis Source Files Read
  6. Analysis & Synthesis Resource Usage Summary
  7. Analysis & Synthesis Resource Utilization by Entity
  8. State Machine - |readkey|constantkey:L_Constantkey|current_state
  9. General Register Statistics
 10. Multiplexer Restructuring Statistics (Restructuring Performed)
 11. Port Connectivity Checks: "showkey:L_Showkey"
 12. Post-Synthesis Netlist Statistics for Top Partition
 13. Elapsed Time Per Partition
 14. Analysis & Synthesis Messages



----------------
; Legal Notice ;
----------------
Copyright (C) 2017  Intel Corporation. All rights reserved.
Your use of Intel Corporation's design tools, logic functions 
and other software and tools, and its AMPP partner logic 
functions, and any output files from any of the foregoing 
(including device programming or simulation files), and any 
associated documentation or information are expressly subject 
to the terms and conditions of the Intel Program License 
Subscription Agreement, the Intel Quartus Prime License Agreement,
the Intel FPGA IP License Agreement, or other applicable license
agreement, including, without limitation, that your use is for
the sole purpose of programming logic devices manufactured by
Intel and sold by Intel or its authorized distributors.  Please
refer to the applicable agreement for further details.



+----------------------------------------------------------------------------------+
; Analysis & Synthesis Summary                                                     ;
+------------------------------------+---------------------------------------------+
; Analysis & Synthesis Status        ; Successful - Tue May 19 21:52:15 2020       ;
; Quartus Prime Version              ; 17.1.0 Build 590 10/25/2017 SJ Lite Edition ;
; Revision Name                      ; readkey                                     ;
; Top-level Entity Name              ; readkey                                     ;
; Family                             ; MAX 10                                      ;
; Total logic elements               ; 60                                          ;
;     Total combinational functions  ; 48                                          ;
;     Dedicated logic registers      ; 34                                          ;
; Total registers                    ; 34                                          ;
; Total pins                         ; 28                                          ;
; Total virtual pins                 ; 0                                           ;
; Total memory bits                  ; 0                                           ;
; Embedded Multiplier 9-bit elements ; 0                                           ;
; Total PLLs                         ; 0                                           ;
; UFM blocks                         ; 0                                           ;
; ADC blocks                         ; 0                                           ;
+------------------------------------+---------------------------------------------+


+----------------------------------------------------------------------------------------------------------------------+
; Analysis & Synthesis Settings                                                                                        ;
+----------------------------------------------------------------------------+--------------------+--------------------+
; Option                                                                     ; Setting            ; Default Value      ;
+----------------------------------------------------------------------------+--------------------+--------------------+
; Device                                                                     ; 10M02DCU324A6G     ;                    ;
; Top-level entity name                                                      ; readkey            ; readkey            ;
; Family name                                                                ; MAX 10             ; Cyclone V          ;
; Use smart compilation                                                      ; Off                ; Off                ;
; Enable parallel Assembler and TimeQuest Timing Analyzer during compilation ; On                 ; On                 ;
; Enable compact report table                                                ; Off                ; Off                ;
; Restructure Multiplexers                                                   ; Auto               ; Auto               ;
; Create Debugging Nodes for IP Cores                                        ; Off                ; Off                ;
; Preserve fewer node names                                                  ; On                 ; On                 ;
; Intel FPGA IP Evaluation Mode                                              ; Enable             ; Enable             ;
; Verilog Version                                                            ; Verilog_2001       ; Verilog_2001       ;
; VHDL Version                                                               ; VHDL_1993          ; VHDL_1993          ;
; State Machine Processing                                                   ; Auto               ; Auto               ;
; Safe State Machine                                                         ; Off                ; Off                ;
; Extract Verilog State Machines                                             ; On                 ; On                 ;
; Extract VHDL State Machines                                                ; On                 ; On                 ;
; Ignore Verilog initial constructs                                          ; Off                ; Off                ;
; Iteration limit for constant Verilog loops                                 ; 5000               ; 5000               ;
; Iteration limit for non-constant Verilog loops                             ; 250                ; 250                ;
; Add Pass-Through Logic to Inferred RAMs                                    ; On                 ; On                 ;
; Infer RAMs from Raw Logic                                                  ; On                 ; On                 ;
; Parallel Synthesis                                                         ; On                 ; On                 ;
; DSP Block Balancing                                                        ; Auto               ; Auto               ;
; NOT Gate Push-Back                                                         ; On                 ; On                 ;
; Power-Up Don't Care                                                        ; On                 ; On                 ;
; Remove Redundant Logic Cells                                               ; Off                ; Off                ;
; Remove Duplicate Registers                                                 ; On                 ; On                 ;
; Ignore CARRY Buffers                                                       ; Off                ; Off                ;
; Ignore CASCADE Buffers                                                     ; Off                ; Off                ;
; Ignore GLOBAL Buffers                                                      ; Off                ; Off                ;
; Ignore ROW GLOBAL Buffers                                                  ; Off                ; Off                ;
; Ignore LCELL Buffers                                                       ; Off                ; Off                ;
; Ignore SOFT Buffers                                                        ; On                 ; On                 ;
; Limit AHDL Integers to 32 Bits                                             ; Off                ; Off                ;
; Optimization Technique                                                     ; Balanced           ; Balanced           ;
; Carry Chain Length                                                         ; 70                 ; 70                 ;
; Auto Carry Chains                                                          ; On                 ; On                 ;
; Auto Open-Drain Pins                                                       ; On                 ; On                 ;
; Perform WYSIWYG Primitive Resynthesis                                      ; Off                ; Off                ;
; Auto ROM Replacement                                                       ; On                 ; On                 ;
; Auto RAM Replacement                                                       ; On                 ; On                 ;
; Auto DSP Block Replacement                                                 ; On                 ; On                 ;
; Auto Shift Register Replacement                                            ; Auto               ; Auto               ;
; Allow Shift Register Merging across Hierarchies                            ; Auto               ; Auto               ;
; Auto Clock Enable Replacement                                              ; On                 ; On                 ;
; Strict RAM Replacement                                                     ; Off                ; Off                ;
; Allow Synchronous Control Signals                                          ; On                 ; On                 ;
; Force Use of Synchronous Clear Signals                                     ; Off                ; Off                ;
; Auto RAM Block Balancing                                                   ; On                 ; On                 ;
; Auto RAM to Logic Cell Conversion                                          ; Off                ; Off                ;
; Auto Resource Sharing                                                      ; Off                ; Off                ;
; Allow Any RAM Size For Recognition                                         ; Off                ; Off                ;
; Allow Any ROM Size For Recognition                                         ; Off                ; Off                ;
; Allow Any Shift Register Size For Recognition                              ; Off                ; Off                ;
; Use LogicLock Constraints during Resource Balancing                        ; On                 ; On                 ;
; Ignore translate_off and synthesis_off directives                          ; Off                ; Off                ;
; Timing-Driven Synthesis                                                    ; On                 ; On                 ;
; Report Parameter Settings                                                  ; On                 ; On                 ;
; Report Source Assignments                                                  ; On                 ; On                 ;
; Report Connectivity Checks                                                 ; On                 ; On                 ;
; Ignore Maximum Fan-Out Assignments                                         ; Off                ; Off                ;
; Synchronization Register Chain Length                                      ; 2                  ; 2                  ;
; Power Optimization During Synthesis                                        ; Normal compilation ; Normal compilation ;
; HDL message level                                                          ; Level2             ; Level2             ;
; Suppress Register Optimization Related Messages                            ; Off                ; Off                ;
; Number of Removed Registers Reported in Synthesis Report                   ; 5000               ; 5000               ;
; Number of Swept Nodes Reported in Synthesis Report                         ; 5000               ; 5000               ;
; Number of Inverted Registers Reported in Synthesis Report                  ; 100                ; 100                ;
; Clock MUX Protection                                                       ; On                 ; On                 ;
; Auto Gated Clock Conversion                                                ; Off                ; Off                ;
; Block Design Naming                                                        ; Auto               ; Auto               ;
; SDC constraint protection                                                  ; Off                ; Off                ;
; Synthesis Effort                                                           ; Auto               ; Auto               ;
; Shift Register Replacement - Allow Asynchronous Clear Signal               ; On                 ; On                 ;
; Pre-Mapping Resynthesis Optimization                                       ; Off                ; Off                ;
; Analysis & Synthesis Message Level                                         ; Medium             ; Medium             ;
; Disable Register Merging Across Hierarchies                                ; Auto               ; Auto               ;
; Resource Aware Inference For Block RAM                                     ; On                 ; On                 ;
+----------------------------------------------------------------------------+--------------------+--------------------+


+------------------------------------------+
; Parallel Compilation                     ;
+----------------------------+-------------+
; Processors                 ; Number      ;
+----------------------------+-------------+
; Number detected on machine ; 8           ;
; Maximum allowed            ; 4           ;
;                            ;             ;
; Average used               ; 1.00        ;
; Maximum used               ; 4           ;
;                            ;             ;
; Usage by Processor         ; % Time Used ;
;     Processor 1            ; 100.0%      ;
;     Processor 2            ;   0.0%      ;
;     Processors 3-4         ;   0.0%      ;
+----------------------------+-------------+


+----------------------------------------------------------------------------------------------------------------------------------------------------------------------------------+
; Analysis & Synthesis Source Files Read                                                                                                                                           ;
+----------------------------------+-----------------+-----------------+-------------------------------------------------------------------------------------------------+---------+
; File Name with User-Entered Path ; Used in Netlist ; File Type       ; File Name with Absolute Path                                                                    ; Library ;
+----------------------------------+-----------------+-----------------+-------------------------------------------------------------------------------------------------+---------+
; clock_domain_crossing.vhd        ; yes             ; User VHDL File  ; C:/.git/HAN/han-soc-assignment-vhdl-piano-master/assignment_2_readKey/clock_domain_crossing.vhd ;         ;
; constantkey.vhd                  ; yes             ; User VHDL File  ; C:/.git/HAN/han-soc-assignment-vhdl-piano-master/assignment_2_readKey/constantkey.vhd           ;         ;
; readkey.vhd                      ; yes             ; User VHDL File  ; C:/.git/HAN/han-soc-assignment-vhdl-piano-master/assignment_2_readKey/readkey.vhd               ;         ;
; showkey.vhd                      ; yes             ; User VHDL File  ; C:/.git/HAN/han-soc-assignment-vhdl-piano-master/assignment_2_readKey/showkey.vhd               ;         ;
+----------------------------------+-----------------+-----------------+-------------------------------------------------------------------------------------------------+---------+


+-----------------------------------------------------------+
; Analysis & Synthesis Resource Usage Summary               ;
+---------------------------------------------+-------------+
; Resource                                    ; Usage       ;
+---------------------------------------------+-------------+
; Estimated Total logic elements              ; 60          ;
;                                             ;             ;
; Total combinational functions               ; 48          ;
; Logic element usage by number of LUT inputs ;             ;
;     -- 4 input functions                    ; 24          ;
;     -- 3 input functions                    ; 9           ;
;     -- <=2 input functions                  ; 15          ;
;                                             ;             ;
; Logic elements by mode                      ;             ;
;     -- normal mode                          ; 41          ;
;     -- arithmetic mode                      ; 7           ;
;                                             ;             ;
; Total registers                             ; 34          ;
;     -- Dedicated logic registers            ; 34          ;
;     -- I/O registers                        ; 0           ;
;                                             ;             ;
; I/O pins                                    ; 28          ;
;                                             ;             ;
; Embedded Multiplier 9-bit elements          ; 0           ;
;                                             ;             ;
; Maximum fan-out node                        ; reset~input ;
; Maximum fan-out                             ; 34          ;
; Total fan-out                               ; 330         ;
; Average fan-out                             ; 2.39        ;
+---------------------------------------------+-------------+


+-----------------------------------------------------------------------------------------------------------------------------------------------------------------------------------------------------------------------------------------------------------------------------------------------------------------+
; Analysis & Synthesis Resource Utilization by Entity                                                                                                                                                                                                                                                             ;
+--------------------------------------------------+---------------------+---------------------------+-------------+------------+--------------+---------+-----------+------+--------------+------------+------------------------------------------------------------------+-----------------------+--------------+
; Compilation Hierarchy Node                       ; Combinational ALUTs ; Dedicated Logic Registers ; Memory Bits ; UFM Blocks ; DSP Elements ; DSP 9x9 ; DSP 18x18 ; Pins ; Virtual Pins ; ADC blocks ; Full Hierarchy Name                                              ; Entity Name           ; Library Name ;
+--------------------------------------------------+---------------------+---------------------------+-------------+------------+--------------+---------+-----------+------+--------------+------------+------------------------------------------------------------------+-----------------------+--------------+
; |readkey                                         ; 48 (0)              ; 34 (0)                    ; 0           ; 0          ; 0            ; 0       ; 0         ; 28   ; 0            ; 0          ; |readkey                                                         ; readkey               ; work         ;
;    |clock_domain_crossing:L_ClockDomainCrossing| ; 0 (0)               ; 4 (0)                     ; 0           ; 0          ; 0            ; 0       ; 0         ; 0    ; 0            ; 0          ; |readkey|clock_domain_crossing:L_ClockDomainCrossing             ; clock_domain_crossing ; work         ;
;       |flipflop:c0|                              ; 0 (0)               ; 1 (1)                     ; 0           ; 0          ; 0            ; 0       ; 0         ; 0    ; 0            ; 0          ; |readkey|clock_domain_crossing:L_ClockDomainCrossing|flipflop:c0 ; flipflop              ; work         ;
;       |flipflop:c1|                              ; 0 (0)               ; 1 (1)                     ; 0           ; 0          ; 0            ; 0       ; 0         ; 0    ; 0            ; 0          ; |readkey|clock_domain_crossing:L_ClockDomainCrossing|flipflop:c1 ; flipflop              ; work         ;
;       |flipflop:c2|                              ; 0 (0)               ; 1 (1)                     ; 0           ; 0          ; 0            ; 0       ; 0         ; 0    ; 0            ; 0          ; |readkey|clock_domain_crossing:L_ClockDomainCrossing|flipflop:c2 ; flipflop              ; work         ;
;       |flipflop:c3|                              ; 0 (0)               ; 1 (1)                     ; 0           ; 0          ; 0            ; 0       ; 0         ; 0    ; 0            ; 0          ; |readkey|clock_domain_crossing:L_ClockDomainCrossing|flipflop:c3 ; flipflop              ; work         ;
;    |constantkey:L_Constantkey|                   ; 16 (16)             ; 5 (5)                     ; 0           ; 0          ; 0            ; 0       ; 0         ; 0    ; 0            ; 0          ; |readkey|constantkey:L_Constantkey                               ; constantkey           ; work         ;
;    |showkey:L_Showkey|                           ; 32 (32)             ; 25 (25)                   ; 0           ; 0          ; 0            ; 0       ; 0         ; 0    ; 0            ; 0          ; |readkey|showkey:L_Showkey                                       ; showkey               ; work         ;
+--------------------------------------------------+---------------------+---------------------------+-------------+------------+--------------+---------+-----------+------+--------------+------------+------------------------------------------------------------------+-----------------------+--------------+
Note: For table entries with two numbers listed, the numbers in parentheses indicate the number of resources of the given type used by the specific entity alone. The numbers listed outside of parentheses indicate the total resources of the given type used by the specific entity and all of its sub-entities in the hierarchy.


Encoding Type:  One-Hot
+--------------------------------------------------------------------------------------------------------------------------------------------------------------------------------------------------------------+
; State Machine - |readkey|constantkey:L_Constantkey|current_state                                                                                                                                             ;
+------------------------------------+------------------------------------+----------------------------------+----------------------------------+---------------------------------+----------------------------+
; Name                               ; current_state.state_key_reminder_2 ; current_state.state_key_reminder ; current_state.state_key_released ; current_state.state_key_pressed ; current_state.state_no_key ;
+------------------------------------+------------------------------------+----------------------------------+----------------------------------+---------------------------------+----------------------------+
; current_state.state_no_key         ; 0                                  ; 0                                ; 0                                ; 0                               ; 0                          ;
; current_state.state_key_pressed    ; 0                                  ; 0                                ; 0                                ; 1                               ; 1                          ;
; current_state.state_key_released   ; 0                                  ; 0                                ; 1                                ; 0                               ; 1                          ;
; current_state.state_key_reminder   ; 0                                  ; 1                                ; 0                                ; 0                               ; 1                          ;
; current_state.state_key_reminder_2 ; 1                                  ; 0                                ; 0                                ; 0                               ; 1                          ;
+------------------------------------+------------------------------------+----------------------------------+----------------------------------+---------------------------------+----------------------------+


+------------------------------------------------------+
; General Register Statistics                          ;
+----------------------------------------------+-------+
; Statistic                                    ; Value ;
+----------------------------------------------+-------+
; Total registers                              ; 34    ;
; Number of registers using Synchronous Clear  ; 8     ;
; Number of registers using Synchronous Load   ; 0     ;
; Number of registers using Asynchronous Clear ; 34    ;
; Number of registers using Asynchronous Load  ; 0     ;
; Number of registers using Clock Enable       ; 16    ;
; Number of registers using Preset             ; 0     ;
+----------------------------------------------+-------+


+------------------------------------------------------------------------------------------------------------------------------------------------------------+
; Multiplexer Restructuring Statistics (Restructuring Performed)                                                                                             ;
+--------------------+-----------+---------------+----------------------+------------------------+------------+----------------------------------------------+
; Multiplexer Inputs ; Bus Width ; Baseline Area ; Area if Restructured ; Saving if Restructured ; Registered ; Example Multiplexer Output                   ;
+--------------------+-----------+---------------+----------------------+------------------------+------------+----------------------------------------------+
; 3:1                ; 8 bits    ; 16 LEs        ; 8 LEs                ; 8 LEs                  ; Yes        ; |readkey|showkey:L_Showkey|\COUNT:counter[7] ;
+--------------------+-----------+---------------+----------------------+------------------------+------------+----------------------------------------------+


+----------------------------------------------------------------------------------------------------------------+
; Port Connectivity Checks: "showkey:L_Showkey"                                                                  ;
+------+--------+----------+-------------------------------------------------------------------------------------+
; Port ; Type   ; Severity ; Details                                                                             ;
+------+--------+----------+-------------------------------------------------------------------------------------+
; dig0 ; Output ; Info     ; Connected to dangling logic. Logic that only feeds a dangling port will be removed. ;
; dig1 ; Output ; Info     ; Connected to dangling logic. Logic that only feeds a dangling port will be removed. ;
+------+--------+----------+-------------------------------------------------------------------------------------+


+-----------------------------------------------------+
; Post-Synthesis Netlist Statistics for Top Partition ;
+-----------------------+-----------------------------+
; Type                  ; Count                       ;
+-----------------------+-----------------------------+
; boundary_port         ; 28                          ;
; cycloneiii_ff         ; 34                          ;
;     CLR               ; 18                          ;
;     ENA CLR           ; 8                           ;
;     ENA CLR SCLR      ; 8                           ;
; cycloneiii_lcell_comb ; 48                          ;
;     arith             ; 7                           ;
;         2 data inputs ; 7                           ;
;     normal            ; 41                          ;
;         1 data inputs ; 1                           ;
;         2 data inputs ; 7                           ;
;         3 data inputs ; 9                           ;
;         4 data inputs ; 24                          ;
;                       ;                             ;
; Max LUT depth         ; 4.00                        ;
; Average LUT depth     ; 2.28                        ;
+-----------------------+-----------------------------+


+-------------------------------+
; Elapsed Time Per Partition    ;
+----------------+--------------+
; Partition Name ; Elapsed Time ;
+----------------+--------------+
; Top            ; 00:00:00     ;
+----------------+--------------+


+-------------------------------+
; Analysis & Synthesis Messages ;
+-------------------------------+
Info: *******************************************************************
Info: Running Quartus Prime Analysis & Synthesis
    Info: Version 17.1.0 Build 590 10/25/2017 SJ Lite Edition
    Info: Processing started: Tue May 19 21:52:02 2020
Info: Command: quartus_map --read_settings_files=on --write_settings_files=off readkey -c readkey
Warning (18236): Number of processors has not been specified which may cause overloading on shared machines.  Set the global assignment NUM_PARALLEL_PROCESSORS in your QSF to an appropriate value for best performance.
Info (20030): Parallel compilation is enabled and will use 4 of the 4 processors detected
Info (12021): Found 4 design units, including 2 entities, in source file clock_domain_crossing.vhd
    Info (12022): Found design unit 1: clock_domain_crossing-LogicFunction File: C:/.git/HAN/han-soc-assignment-vhdl-piano-master/assignment_2_readKey/clock_domain_crossing.vhd Line: 79
    Info (12022): Found design unit 2: flipflop-Logic File: C:/.git/HAN/han-soc-assignment-vhdl-piano-master/assignment_2_readKey/clock_domain_crossing.vhd Line: 116
    Info (12023): Found entity 1: clock_domain_crossing File: C:/.git/HAN/han-soc-assignment-vhdl-piano-master/assignment_2_readKey/clock_domain_crossing.vhd Line: 68
    Info (12023): Found entity 2: flipflop File: C:/.git/HAN/han-soc-assignment-vhdl-piano-master/assignment_2_readKey/clock_domain_crossing.vhd Line: 107
Info (12021): Found 2 design units, including 1 entities, in source file constantkey.vhd
    Info (12022): Found design unit 1: constantkey-LogicFunction File: C:/.git/HAN/han-soc-assignment-vhdl-piano-master/assignment_2_readKey/constantkey.vhd Line: 44
    Info (12023): Found entity 1: constantkey File: C:/.git/HAN/han-soc-assignment-vhdl-piano-master/assignment_2_readKey/constantkey.vhd Line: 32
Info (12021): Found 2 design units, including 1 entities, in source file constantkey_tb.vhd
    Info (12022): Found design unit 1: constantkey_vhd_tst-constantkey_arch File: C:/.git/HAN/han-soc-assignment-vhdl-piano-master/assignment_2_readKey/constantkey_tb.vhd Line: 33
    Info (12023): Found entity 1: constantkey_vhd_tst File: C:/.git/HAN/han-soc-assignment-vhdl-piano-master/assignment_2_readKey/constantkey_tb.vhd Line: 30
Info (12021): Found 2 design units, including 1 entities, in source file readkey.vhd
    Info (12022): Found design unit 1: readkey-readkey_struct File: C:/.git/HAN/han-soc-assignment-vhdl-piano-master/assignment_2_readKey/readkey.vhd Line: 80
    Info (12023): Found entity 1: readkey File: C:/.git/HAN/han-soc-assignment-vhdl-piano-master/assignment_2_readKey/readkey.vhd Line: 68
Info (12021): Found 2 design units, including 1 entities, in source file showkey.vhd
    Info (12022): Found design unit 1: showkey-LogicFunction File: C:/.git/HAN/han-soc-assignment-vhdl-piano-master/assignment_2_readKey/showkey.vhd Line: 58
    Info (12023): Found entity 1: showkey File: C:/.git/HAN/han-soc-assignment-vhdl-piano-master/assignment_2_readKey/showkey.vhd Line: 46
Info (12021): Found 2 design units, including 1 entities, in source file readkey_tb.vhd
    Info (12022): Found design unit 1: readkey_tb-readkey_arch File: C:/.git/HAN/han-soc-assignment-vhdl-piano-master/assignment_2_readKey/readkey_tb.vhd Line: 15
    Info (12023): Found entity 1: readkey_tb File: C:/.git/HAN/han-soc-assignment-vhdl-piano-master/assignment_2_readKey/readkey_tb.vhd Line: 11
Info (12127): Elaborating entity "readkey" for the top level hierarchy
Info (12128): Elaborating entity "clock_domain_crossing" for hierarchy "clock_domain_crossing:L_ClockDomainCrossing" File: C:/.git/HAN/han-soc-assignment-vhdl-piano-master/assignment_2_readKey/readkey.vhd Line: 89
Info (12128): Elaborating entity "flipflop" for hierarchy "clock_domain_crossing:L_ClockDomainCrossing|flipflop:c0" File: C:/.git/HAN/han-soc-assignment-vhdl-piano-master/assignment_2_readKey/clock_domain_crossing.vhd Line: 94
Info (12128): Elaborating entity "showkey" for hierarchy "showkey:L_Showkey" File: C:/.git/HAN/han-soc-assignment-vhdl-piano-master/assignment_2_readKey/readkey.vhd Line: 102
Info (12128): Elaborating entity "constantkey" for hierarchy "constantkey:L_Constantkey" File: C:/.git/HAN/han-soc-assignment-vhdl-piano-master/assignment_2_readKey/readkey.vhd Line: 111
Warning (10492): VHDL Process Statement warning at constantkey.vhd(125): signal "scancode" is read inside the Process Statement but isn't in the Process Statement's sensitivity list File: C:/.git/HAN/han-soc-assignment-vhdl-piano-master/assignment_2_readKey/constantkey.vhd Line: 125
Warning (10492): VHDL Process Statement warning at constantkey.vhd(138): signal "dig_buffer" is read inside the Process Statement but isn't in the Process Statement's sensitivity list File: C:/.git/HAN/han-soc-assignment-vhdl-piano-master/assignment_2_readKey/constantkey.vhd Line: 138
Info (286030): Timing-Driven Synthesis is running
Info (16010): Generating hard_block partition "hard_block:auto_generated_inst"
    Info (16011): Adding 0 node(s), including 0 DDIO, 0 PLL, 0 transceiver and 0 LCELL
Info (21057): Implemented 88 device resources after synthesis - the final resource count might be different
    Info (21058): Implemented 4 input pins
    Info (21059): Implemented 24 output pins
    Info (21061): Implemented 60 logic cells
Info: Quartus Prime Analysis & Synthesis was successful. 0 errors, 3 warnings
    Info: Peak virtual memory: 4797 megabytes
    Info: Processing ended: Tue May 19 21:52:15 2020
    Info: Elapsed time: 00:00:13
    Info: Total CPU time (on all processors): 00:00:28


