{
	"partitions" : [
		{
			"name" : "Top",
			"pins" : [
				{
					"name" : "key[0]",
					"strict" : false
				},
				{
					"name" : "key[1]",
					"strict" : false
				},
				{
					"name" : "key[2]",
					"strict" : false
				},
				{
					"name" : "key[3]",
					"strict" : false
				},
				{
					"name" : "key[4]",
					"strict" : false
				},
				{
					"name" : "key[5]",
					"strict" : false
				},
				{
					"name" : "key[6]",
					"strict" : false
				},
				{
					"name" : "key[7]",
					"strict" : false
				},
				{
					"name" : "dig2[0]",
					"strict" : false
				},
				{
					"name" : "dig2[1]",
					"strict" : false
				},
				{
					"name" : "dig2[2]",
					"strict" : false
				},
				{
					"name" : "dig2[3]",
					"strict" : false
				},
				{
					"name" : "dig2[4]",
					"strict" : false
				},
				{
					"name" : "dig2[5]",
					"strict" : false
				},
				{
					"name" : "dig2[6]",
					"strict" : false
				},
				{
					"name" : "dig2[7]",
					"strict" : false
				},
				{
					"name" : "dig3[0]",
					"strict" : false
				},
				{
					"name" : "dig3[1]",
					"strict" : false
				},
				{
					"name" : "dig3[2]",
					"strict" : false
				},
				{
					"name" : "dig3[3]",
					"strict" : false
				},
				{
					"name" : "dig3[4]",
					"strict" : false
				},
				{
					"name" : "dig3[5]",
					"strict" : false
				},
				{
					"name" : "dig3[6]",
					"strict" : false
				},
				{
					"name" : "dig3[7]",
					"strict" : false
				},
				{
					"name" : "reset",
					"strict" : false
				},
				{
					"name" : "clk",
					"strict" : false
				},
				{
					"name" : "kbclock",
					"strict" : false
				},
				{
					"name" : "kbdata",
					"strict" : false
				}
			]
		}
	]
}